<svg width="24" height="24" viewBox="0 0 24 24" fill="none" xmlns="http://www.w3.org/2000/svg">
<path d="M18 15.75C17.596 15.7499 17.1961 15.8316 16.8245 15.9903C16.453 16.149 16.1174 16.3814 15.8382 16.6734L8.90067 12.7702C9.03505 12.2655 9.03505 11.7345 8.90067 11.2299L15.8382 7.32657C16.3433 7.85032 17.0222 8.17192 17.7474 8.23111C18.4727 8.2903 19.1947 8.08302 19.7781 7.6481C20.3615 7.21319 20.7663 6.58048 20.9167 5.8685C21.0671 5.15653 20.9528 4.41415 20.5951 3.78043C20.2374 3.14672 19.661 2.66515 18.9737 2.42595C18.2865 2.18676 17.5356 2.20634 16.8618 2.48103C16.1879 2.75572 15.6373 3.26667 15.3132 3.91817C14.989 4.56966 14.9135 5.317 15.1008 6.02016L8.16332 9.92344C7.74892 9.49137 7.21473 9.19316 6.62945 9.06718C6.04417 8.9412 5.43459 8.99321 4.87912 9.21653C4.32365 9.43985 3.8477 9.82425 3.5125 10.3203C3.17729 10.8163 2.99817 11.4013 2.99817 12C2.99817 12.5987 3.17729 13.1837 3.5125 13.6797C3.8477 14.1758 4.32365 14.5602 4.87912 14.7835C5.43459 15.0068 6.04417 15.0588 6.62945 14.9328C7.21473 14.8069 7.74892 14.5086 8.16332 14.0766L15.1008 17.9799C14.94 18.5854 14.9728 19.2261 15.1946 19.8121C15.4164 20.3981 15.8161 20.8999 16.3377 21.2472C16.8592 21.5944 17.4764 21.7696 18.1026 21.7483C18.7288 21.7269 19.3326 21.51 19.8292 21.128C20.3259 20.746 20.6905 20.2181 20.8719 19.6184C21.0532 19.0186 21.0422 18.3772 20.8405 17.784C20.6387 17.1908 20.2563 16.6757 19.7469 16.3109C19.2375 15.9461 18.6266 15.75 18 15.75Z" fill="black"/>
</svg>
